<svg xmlns="http://www.w3.org/2000/svg" width="276" height="188" viewBox="0 0 276 188">
  <g id="Group_17" data-name="Group 17" transform="translate(-297 -546)">
    <path id="Rectangle_230" data-name="Rectangle 230" d="M0,0H200.41a10,10,0,0,1,10,10V178a10,10,0,0,1-10,10H0a0,0,0,0,1,0,0V0A0,0,0,0,1,0,0Z" transform="translate(362.59 546)" fill="#fff"/>
    <path id="Path_26" data-name="Path 26" d="M297.255,554a12.828,12.828,0,0,0-.255,2.546V719.1a12.718,12.718,0,0,0,12.706,12.73H362.59V554Z" transform="translate(0 2.165)" fill="#001a2d"/>
    <rect id="Rectangle_231" data-name="Rectangle 231" width="30.973" height="4.251" rx="1.673" transform="translate(303.68 594.019)" fill="#e0dfdf"/>
    <rect id="Rectangle_232" data-name="Rectangle 232" width="44.941" height="4.251" rx="1.673" transform="translate(303.68 606.796)" fill="#00c081"/>
    <rect id="Rectangle_233" data-name="Rectangle 233" width="38.868" height="4.251" rx="1.673" transform="translate(303.68 620.79)" fill="#e0dfdf"/>
    <rect id="Rectangle_234" data-name="Rectangle 234" width="17.005" height="4.251" rx="1.673" transform="translate(303.68 636.001)" fill="#e0dfdf"/>
    <g id="Group_14" data-name="Group 14" transform="translate(321.9 557.763)">
      <path id="Path_27" data-name="Path 27" d="M324.166,558.731l.933.933.933-.933-.933-.933Zm-.623,0,1.555-1.555,1.557,1.555-1.557,1.556Zm6.586-3.473-2.2,2.2,2.515,2.514-.311.313-5.03-5.029-5.029,5.029-1.555-1.556,1.555-1.555.313.311-1.245,1.244.933.933,2.2-2.2-2.2-2.2-3.473,3.473,3.473,3.473,2.515-2.513L325.1,562.2l2.516-2.515,2.515,2.515,2.2-2.2-2.513-2.515.311-.311,2.515,2.514.958-.959Z" transform="translate(-316.597 -555.258)" fill="#e0dfdf"/>
      <rect id="Rectangle_235" data-name="Rectangle 235" width="2.199" height="1.356" transform="translate(8.502 5.028) rotate(-45)" fill="#e0dfdf"/>
      <rect id="Rectangle_236" data-name="Rectangle 236" width="2.199" height="1.356" transform="matrix(0.707, -0.707, 0.707, 0.707, 3.473, 5.028)" fill="#e0dfdf"/>
    </g>
    <rect id="Rectangle_237" data-name="Rectangle 237" width="80.166" height="7.288" transform="translate(371.198 581.459)" fill="#f7f7f7"/>
    <rect id="Rectangle_238" data-name="Rectangle 238" width="76.69" height="62.553" transform="translate(374.161 627.497)" fill="#e0dfdf"/>
    <rect id="Rectangle_239" data-name="Rectangle 239" width="77.507" height="62.553" transform="translate(470.081 627.497)" fill="#e0dfdf"/>
    <rect id="Rectangle_240" data-name="Rectangle 240" width="171.263" height="0.607" transform="translate(371.371 596.058)" fill="#e2e0e0"/>
    <g id="Group_15" data-name="Group 15" transform="translate(297.255 546)">
      <path id="Path_28" data-name="Path 28" d="M309.664,546A12.72,12.72,0,0,0,297.2,556.165H572.946V554.3a8.308,8.308,0,0,0-8.312-8.3" transform="translate(-297.201 -546)" fill="#001a2d"/>
    </g>
    <g id="Group_16" data-name="Group 16" transform="translate(362.869 546)">
      <path id="Path_29" data-name="Path 29" d="M348.621,556.165H558.554a.2.2,0,0,0,.2-.2v-2.122c0-4.333-2.241-7.845-6.574-7.845H348.621Z" transform="translate(-348.621 -546)" fill="#efefef"/>
    </g>
    <rect id="Rectangle_241" data-name="Rectangle 241" width="76.69" height="24.141" transform="translate(374.159 627.606)" fill="#dc3545"/>
  </g>
</svg>
