<svg xmlns="http://www.w3.org/2000/svg" xmlns:xlink="http://www.w3.org/1999/xlink" width="462" height="340" viewBox="0 0 462 340">
  <defs>
    <filter id="Path_22" x="137.52" y="20" width="318" height="242" filterUnits="userSpaceOnUse">
      <feOffset dy="3" input="SourceAlpha"/>
      <feGaussianBlur stdDeviation="3" result="blur"/>
      <feFlood flood-opacity="0.161"/>
      <feComposite operator="in" in2="blur"/>
      <feComposite in="SourceGraphic"/>
    </filter>
    <clipPath id="clip-iPhone_X_XS_11_Pro_1">
      <rect width="462" height="340"/>
    </clipPath>
  </defs>
  <g id="iPhone_X_XS_11_Pro_1" data-name="iPhone X/XS/11 Pro – 1" clip-path="url(#clip-iPhone_X_XS_11_Pro_1)">
    <g id="dropdown" transform="translate(-956.48 -32)">
      <g transform="matrix(1, 0, 0, 1, 956.48, 32)" filter="url(#Path_22)">
        <path id="Path_22-2" data-name="Path 22" d="M0,0H300V224H0Z" transform="translate(146.52 26)" fill="#fff"/>
      </g>
      <text id="User-name-get-truncated-thisway-when-_" data-name="User-name-get-truncated-thisway-when-…" transform="translate(1119 88)" fill="#141823" font-size="14" font-family="Lato-Bold, Lato" font-weight="700"><tspan x="0" y="0">User-name-get-truncated-thisway-when-…</tspan></text>
      <text id="useremail_something.com" data-name="useremail@something.com" transform="translate(1189 107)" fill="#141823" font-size="12" font-family="Lato-Regular, Lato"><tspan x="-70.185" y="0">useremail@something.com</tspan></text>
      <g id="Group_41" data-name="Group 41" transform="translate(1119.481 142)">
        <text id="Edit_profile" data-name="Edit profile" transform="translate(26)" fill="#00c081" font-size="14" font-family="Lato-Regular, Lato"><tspan x="0" y="14">Edit profile</tspan></text>
        <text id="edit" transform="translate(0 18)" fill="#00c081" font-size="18" font-family="eos-icons-extended"><tspan x="0" y="0">edit</tspan></text>
      </g>
      <g id="Group_53" data-name="Group 53" transform="translate(1119.481 169)">
        <text id="Settings" transform="translate(26)" fill="#141823" font-size="14" font-family="Lato-Regular, Lato"><tspan x="0" y="14">Settings</tspan></text>
        <text id="settings-2" data-name="settings" transform="translate(0 18)" fill="#141823" font-size="18" font-family="eos-icons-extended"><tspan x="0" y="0">settings</tspan></text>
      </g>
      <g id="Group_54" data-name="Group 54" transform="translate(1119.481 196)">
        <text id="My_subscriptions" data-name="My subscriptions" transform="translate(26)" fill="#141823" font-size="14" font-family="Lato-Regular, Lato"><tspan x="0" y="14">My subscriptions</tspan></text>
        <text id="subscriptions" transform="translate(0 18)" fill="#141823" font-size="18" font-family="eos-icons-extended"><tspan x="0" y="0">subscriptions</tspan></text>
      </g>
      <g id="Group_40" data-name="Group 40" transform="translate(1119.481 247)">
        <text id="Logout" transform="translate(26)" fill="#141823" font-size="14" font-family="Lato-Regular, Lato"><tspan x="0" y="14">Logout</tspan></text>
        <text id="exit_to_app" transform="translate(0 18)" fill="#141823" font-size="18" font-family="eos-icons-extended"><tspan x="0" y="0">exit_to_app</tspan></text>
      </g>
      <path id="Path_20" data-name="Path 20" d="M0,0H299.5" transform="translate(1103.5 231)" fill="none" stroke="#edeff0" stroke-width="1"/>
      <path id="Path_21" data-name="Path 21" d="M0,0H299.5" transform="translate(1103.5 126)" fill="none" stroke="#edeff0" stroke-width="1"/>
    </g>
  </g>
</svg>
